Homework 8
…
set.seed(10)
bike_split <- initial_split(bike_data, prop = 0.75, strata = seasons)
bike_train <- training(bike_split)
bike_test <- testing(bike_split)

print(bike_test)

# A tibble: 90 × 12
   date       seasons holiday    rented_bike_count rainfall snowfall temperature
   <date>     <fct>   <fct>                  <dbl>    <dbl>    <dbl>       <dbl>
 1 2017-12-02 Winter  No Holiday              8523      0        0        1.33  
 2 2017-12-03 Winter  No Holiday              7222      4        0        4.88  
 3 2017-12-17 Winter  No Holiday              3776      0        0       -7.01  
 4 2017-12-20 Winter  No Holiday              4568      0.2     48.3     -4.29  
 5 2017-12-21 Winter  No Holiday              5734      0       38.9     -0.846 
 6 2017-12-26 Winter  No Holiday              5605      0        0       -3.27  
 7 2017-12-27 Winter  No Holiday              5351      0        0       -7.00  
 8 2018-01-06 Winter  No Holiday              5180      0        0       -2.75  
 9 2018-01-09 Winter  No Holiday              5500      0       10.8     -3.87  
10 2018-01-14 Winter  No Holiday              4225      0        0        0.0208
# ℹ 80 more rows
# ℹ 5 more variables: humidity <dbl>, wind_speed <dbl>, visibility <dbl>,
#   dew_point_temperature <dbl>, solar_radiation <dbl>

print(bike_train)

# A tibble: 263 × 12
   date       seasons holiday    rented_bike_count rainfall snowfall temperature
   <date>     <fct>   <fct>                  <dbl>    <dbl>    <dbl>       <dbl>
 1 2018-09-02 Autumn  No Holiday             26881      0          0        25.0
 2 2018-09-03 Autumn  No Holiday             10802     34.5        0        23.6
 3 2018-09-04 Autumn  No Holiday             29529      0          0        23.3
 4 2018-09-07 Autumn  No Holiday             30381      1.5        0        22.2
 5 2018-09-08 Autumn  No Holiday             29813      0          0        21.7
 6 2018-09-09 Autumn  No Holiday             28354      0          0        22.0
 7 2018-09-11 Autumn  No Holiday             31694      0          0        21.6
 8 2018-09-13 Autumn  No Holiday             30991      0          0        23.4
 9 2018-09-14 Autumn  No Holiday             28199      0.5        0        23.5
10 2018-09-15 Autumn  No Holiday             25079      0.2        0        23.2
# ℹ 253 more rows
# ℹ 5 more variables: humidity <dbl>, wind_speed <dbl>, visibility <dbl>,
#   dew_point_temperature <dbl>, solar_radiation <dbl>
…
# A tibble: 2 × 4
  .metric .estimator .estimate .config        
  <chr>   <chr>          <dbl> <chr>          
1 rmse    standard    2963.    pre0_mod0_post0
2 rsq     standard       0.918 pre0_mod0_post0

RMSE appears to be around 2963 for the test set. Now, let’s exrtract our coefficients.

coefs <- final_fit |> extract_fit_parsnip() |> tidy()

coefs

# A tibble: 29 × 5
   term                                estimate std.error statistic  p.value
   <chr>                                  <dbl>     <dbl>     <dbl>    <dbl>
 1 (Intercept)                           16062.     1652.     9.73  5.40e-19
 2 seasons_Spring                        -2633.     2599.    -1.01  3.12e- 1
 3 seasons_Summer                        18968.     3171.     5.98  8.19e- 9
 4 seasons_Winter                        -7289.     2816.    -2.59  1.02e- 2
 5 holiday_No.Holiday                     5550.     1497.     3.71  2.62e- 4
 6 day_type_Weekend                      -2493.      398.    -6.27  1.76e- 9
 7 seasons_Spring_x_holiday_No.Holiday   -1367.     2662.    -0.513 6.08e- 1
 8 seasons_Summer_x_holiday_No.Holiday   -1662.     2502.    -0.664 5.07e- 1
 9 seasons_Winter_x_holiday_No.Holiday   -3849.     1900.    -2.03  4.40e- 2
10 seasons_Spring_x_temperature           5895.     1075.     5.48  1.08e- 7
# ℹ 19 more rows
